%YAML 1.1
%TAG !u! tag:unity3d.com,2011:
--- !u!21 &2100000
Material:
  serializedVersion: 6
  m_ObjectHideFlags: 0
  m_PrefabParentObject: {fileID: 0}
  m_PrefabInternal: {fileID: 0}
  m_Name: GlowLightCylinder
  m_Shader: {fileID: 4800000, guid: 8de5cd804a74ff744ab7aa730f45890b, type: 3}
  m_ShaderKeywords: GLOWEFFECT_MULTIPLY_COLOR_OFF GLOWEFFECT_USE_GLOWCOLOR_OFF GLOWEFFECT_USE_GLOWTEX_OFF
    GLOWEFFECT_USE_MAINTEX_OFF GLOWEFFECT_USE_VERTEXCOLOR_OFF
  m_LightmapFlags: 5
  m_EnableInstancingVariants: 0
  m_CustomRenderQueue: -1
  stringTagMap: {}
  disabledShaderPasses: []
  m_SavedProperties:
    serializedVersion: 3
    m_TexEnvs:
    - _GlowMask:
        m_Texture: {fileID: 2800000, guid: 0e017a9345d97ad45b0fd6a0b13e9d2d, type: 3}
        m_Scale: {x: 1, y: 1}
        m_Offset: {x: 0, y: 0}
    - _GlowTex:
        m_Texture: {fileID: 2800000, guid: 19913b7074723c940a80fcfbdc79de59, type: 3}
        m_Scale: {x: 1, y: 1}
        m_Offset: {x: 0, y: 0}
    - _MainTex:
        m_Texture: {fileID: 2800000, guid: 5ec423a4b9052354f8e4987338b4dbdd, type: 3}
        m_Scale: {x: 1, y: 1}
        m_Offset: {x: 0, y: 0}
    m_Floats: []
    m_Colors:
    - _Color: {r: 1, g: 1, b: 1, a: 1}
    - _GlowColor: {r: 1, g: 1, b: 1, a: 0}
    - _GlowColorMult: {r: 0.45613575, g: 0.45613575, b: 0, a: 1}
